GAME/test.vcd
$date
  Sun Dec 18 20:52:08 2022
$end
$version
  GHDL v0
$end
$timescale
  1 fs
$end
$scope module standard $end
$upscope $end
$scope module std_logic_1164 $end
$upscope $end
$scope module numeric_std $end
$upscope $end
$scope module tb_data_path $end
$var reg 1 ! clr $end
$var reg 1 " clock $end
$var reg 1 # en_cont1 $end
$var reg 1 $ en_cont2 $end
$var reg 1 % rmv_moeda $end
$var reg 1 & rmv_obst $end
$var reg 1 ' shift $end
$var reg 1 ( set_player $end
$var reg 1 ) clr_player $end
$var reg 1 * clr_start $end
$var reg 1 + clr_timer $end
$var reg 1 , game_a_button $end
$var reg 1 - game_b_button $end
$var reg 1 . game_start $end
$var reg 1 / render $end
$var reg 3 0 cmd[2:0] $end
$var reg 1 1 player $end
$var reg 1 2 start $end
$var reg 1 3 end_of_frame $end
$var reg 1 4 tem_moeda $end
$var reg 1 5 tem_obst $end
$var reg 1 6 collected $end
$var reg 1 7 ended $end
$var reg 1 8 finished $end
$var reg 1 9 lcd_rs_pin $end
$var reg 1 : lcd_e_pin $end
$var reg 3 ; result[2:0] $end
$var reg 7 < d7s_1_dez[6:0] $end
$var reg 7 = d7s_1_un[6:0] $end
$var reg 7 > d7s_2_dez[6:0] $end
$var reg 7 ? d7s_2_un[6:0] $end
$var reg 8 @ lcd_data_pins[7:0] $end
$scope module dp $end
$var reg 1 A dt_clr $end
$var reg 1 B dt_clk $end
$var reg 1 C dt_en_cont_1 $end
$var reg 1 D dt_en_cont_2 $end
$var reg 1 E dt_rmv_moeda $end
$var reg 1 F dt_rmv_obst $end
$var reg 1 G dt_shift $end
$var reg 1 H dt_set_player $end
$var reg 1 I dt_clr_player $end
$var reg 1 J dt_clr_start $end
$var reg 1 K dt_clr_timer $end
$var reg 3 L dt_cmd[2:0] $end
$var reg 1 M dt_a_key $end
$var reg 1 N dt_b_key $end
$var reg 1 O dt_start_key $end
$var reg 1 P dt_render $end
$var reg 1 Q dt_player $end
$var reg 1 R dt_start $end
$var reg 1 S dt_end_of_frame $end
$var reg 1 T dt_tem_moeda $end
$var reg 1 U dt_tem_obstaculo $end
$var reg 1 V dt_collected $end
$var reg 1 W dt_ended $end
$var reg 1 X dt_igual $end
$var reg 1 Y dt_maior $end
$var reg 1 Z dt_menor $end
$var reg 1 [ dt_finished $end
$var reg 8 \ dt_data[7:0] $end
$var reg 1 ] dt_rs $end
$var reg 1 ^ dt_e $end
$var reg 7 _ dt_d1_dez[6:0] $end
$var reg 7 ` dt_d1_un[6:0] $end
$var reg 7 a dt_d2_dez[6:0] $end
$var reg 7 b dt_d2_un[6:0] $end
$var reg 7 c s1[6:0] $end
$var reg 7 d s2[6:0] $end
$var reg 7 e s15[6:0] $end
$var reg 7 f s16[6:0] $end
$var reg 7 g s17[6:0] $end
$var reg 7 h s18[6:0] $end
$var reg 1 i s3 $end
$var reg 1 j s4 $end
$var reg 1 k s5 $end
$var reg 1 l s7 $end
$var reg 1 m s12 $end
$var reg 1 n s13 $end
$var reg 1 o s14 $end
$var reg 2 p s6[1:0] $end
$var reg 17 q s8[16:0] $end
$var reg 17 r s9[16:0] $end
$var reg 17 s s10[16:0] $end
$var reg 17 t s11[16:0] $end
$scope module contador_moedas_1 $end
$var reg 1 u cnt_reset $end
$var reg 1 v cnt_h $end
$var reg 1 w cnt_clk $end
$var reg 7 x cnt_q[6:0] $end
$upscope $end
$scope module contador_moedas_2 $end
$var reg 1 y cnt_reset $end
$var reg 1 z cnt_h $end
$var reg 1 { cnt_clk $end
$var reg 7 | cnt_q[6:0] $end
$upscope $end
$scope module comparador_moedas $end
$var reg 7 } cmp_a[6:0] $end
$var reg 7 !" cmp_b[6:0] $end
$var reg 1 "" cmp_igual $end
$var reg 1 #" cmp_maior $end
$var reg 1 $" cmp_menor $end
$upscope $end
$scope module player_reg $end
$var reg 1 %" r1_pre $end
$var reg 1 &" r1_clr $end
$var reg 1 '" r1_clk $end
$var reg 1 (" r1_q $end
$var reg 1 )" d $end
$var reg 1 *" en $end
$var reg 1 +" qi $end
$upscope $end
$scope module start_reg $end
$var reg 1 ," r1_pre $end
$var reg 1 -" r1_clr $end
$var reg 1 ." r1_clk $end
$var reg 1 /" r1_q $end
$var reg 1 0" d $end
$var reg 1 1" en $end
$var reg 1 2" qi $end
$upscope $end
$scope module frame_timer $end
$var reg 1 3" tmr_clk $end
$var reg 1 4" tmr_reset $end
$var reg 1 5" tmr_q $end
$upscope $end
$scope module player_position $end
$var reg 1 6" r1_pre $end
$var reg 1 7" r1_clr $end
$var reg 1 8" r1_clk $end
$var reg 1 9" r1_q $end
$var reg 1 :" d $end
$var reg 1 ;" en $end
$var reg 1 <" qi $end
$upscope $end
$scope module divisor_freq $end
$var reg 1 =" div_clk $end
$var reg 1 >" div_reset $end
$var reg 1 ?" div_q $end
$var reg 1 @" tmp $end
$upscope $end
$scope module lfsr_instance $end
$var reg 1 A" lfsr_clk $end
$var reg 1 B" lfsr_s0 $end
$var reg 1 C" lfsr_s1 $end
$var reg 18 D" intern[17:0] $end
$upscope $end
$scope module cont_2b $end
$var reg 1 E" cnt_clk $end
$var reg 1 F" cnt_reset $end
$var reg 2 G" cnt_q[1:0] $end
$upscope $end
$scope module sr_moeda $end
$var reg 1 H" sr_in0 $end
$var reg 1 I" sr_in1 $end
$var reg 1 J" sr_clk $end
$var reg 1 K" sr_rmv $end
$var reg 1 L" sr_clr $end
$var reg 17 M" sr_q0[16:0] $end
$var reg 17 N" sr_q1[16:0] $end
$var reg 1 O" in0 $end
$var reg 1 P" in1 $end
$var reg 1 Q" clk $end
$var reg 1 R" e $end
$var reg 17 S" q0[16:0] $end
$var reg 17 T" q1[16:0] $end
$scope module instancia0_reg $end
$var reg 1 U" reg18_in $end
$var reg 1 V" reg18_e $end
$var reg 1 W" reg18_clk $end
$var reg 1 X" reg18_clr $end
$var reg 17 Y" reg18_q[16:0] $end
$var reg 1 Z" reg18_rmv $end
$upscope $end
$scope module instancia1_reg $end
$var reg 1 [" reg18_in $end
$var reg 1 \" reg18_e $end
$var reg 1 ]" reg18_clk $end
$var reg 1 ^" reg18_clr $end
$var reg 17 _" reg18_q[16:0] $end
$var reg 1 `" reg18_rmv $end
$upscope $end
$upscope $end
$scope module sr_obstaculo $end
$var reg 1 a" sr_in0 $end
$var reg 1 b" sr_in1 $end
$var reg 1 c" sr_clk $end
$var reg 1 d" sr_rmv $end
$var reg 1 e" sr_clr $end
$var reg 17 f" sr_q0[16:0] $end
$var reg 17 g" sr_q1[16:0] $end
$var reg 1 h" in0 $end
$var reg 1 i" in1 $end
$var reg 1 j" clk $end
$var reg 1 k" e $end
$var reg 17 l" q0[16:0] $end
$var reg 17 m" q1[16:0] $end
$scope module instancia0_reg $end
$var reg 1 n" reg18_in $end
$var reg 1 o" reg18_e $end
$var reg 1 p" reg18_clk $end
$var reg 1 q" reg18_clr $end
$var reg 17 r" reg18_q[16:0] $end
$var reg 1 s" reg18_rmv $end
$upscope $end
$scope module instancia1_reg $end
$var reg 1 t" reg18_in $end
$var reg 1 u" reg18_e $end
$var reg 1 v" reg18_clk $end
$var reg 1 w" reg18_clr $end
$var reg 17 x" reg18_q[16:0] $end
$var reg 1 y" reg18_rmv $end
$upscope $end
$upscope $end
$scope module comp1 $end
$var reg 1 z" cmp_m $end
$var reg 1 {" cmp_p $end
$var reg 1 |" cmp_q $end
$upscope $end
$scope module comp2 $end
$var reg 1 }" cmp_m $end
$var reg 1 !# cmp_p $end
$var reg 1 "# cmp_q $end
$upscope $end
$scope module div_freq_10khz $end
$var reg 1 ## div_clk $end
$var reg 1 $# div_reset $end
$var reg 1 %# div_q $end
$var reg 1 &# tmp $end
$upscope $end
$scope module lcd $end
$var reg 1 '# clk $end
$var reg 3 (# cmd[2:0] $end
$var reg 1 )# render $end
$var reg 16 *# q0_moeda[15:0] $end
$var reg 16 +# q1_moeda[15:0] $end
$var reg 16 ,# q0_obstaculo[15:0] $end
$var reg 16 -# q1_obstaculo[15:0] $end
$var reg 1 .# player_pos $end
$var reg 1 /# finished $end
$var reg 8 0# data[7:0] $end
$var reg 1 1# e $end
$var reg 1 2# rs $end
$var reg 1 3# q0_pos $end
$var reg 1 4# q1_pos $end
$var reg 1 5# pos_15 $end
$var reg 1 6# linha $end
$var reg 1 7# t2 $end
$var reg 1 8# t40 $end
$var reg 1 9# t100 $end
$var reg 1 :# t1000 $end
$var reg 1 ;# en_e $end
$var reg 1 <# clr_pos $end
$var reg 1 =# en_pos $end
$var reg 1 ># clr_linha $end
$var reg 1 ?# set_linha $end
$var reg 1 @# en_obj $end
$var reg 1 A# clr_obj $end
$var reg 1 B# clr_timer $end
$var reg 1 C# en_timer $end
$var reg 2 D# obj[1:0] $end
$scope module controladora $end
$var reg 1 E# fsm_clk $end
$var reg 3 F# fsm_cmd[2:0] $end
$var reg 1 G# fsm_q0_pos $end
$var reg 1 H# fsm_q1_pos $end
$var reg 1 I# fsm_player_pos $end
$var reg 1 J# fsm_pos $end
$var reg 1 K# fsm_linha $end
$var reg 1 L# fsm_t2 $end
$var reg 1 M# fsm_t40 $end
$var reg 1 N# fsm_t100 $end
$var reg 1 O# fsm_t1000 $end
$var reg 2 P# fsm_obj[1:0] $end
$var reg 1 Q# fsm_render $end
$var reg 1 R# fsm_clr_pos $end
$var reg 1 S# fsm_en_pos $end
$var reg 1 T# fsm_clr_linha $end
$var reg 1 U# fsm_set_linha $end
$var reg 1 V# fsm_clr_timer $end
$var reg 1 W# fsm_en_timer $end
$var reg 1 X# fsm_clr_obj $end
$var reg 1 Y# fsm_en_obj $end
$var reg 1 Z# fsm_en_e $end
$var reg 1 [# fsm_finish $end
$var reg 1 \# fsm_rs $end
$var reg 8 ]# fsm_dt[7:0] $end
$comment atual_estado is not handled $end
$comment prox_estado is not handled $end
$upscope $end
$scope module datapath $end
$var reg 1 ^# dp_clk $end
$var reg 16 _# dp_q0obst[15:0] $end
$var reg 16 `# dp_q0moeda[15:0] $end
$var reg 16 a# dp_q1obst[15:0] $end
$var reg 16 b# dp_q1moeda[15:0] $end
$var reg 1 c# dp_cnt_pos $end
$var reg 1 d# dp_clr_pos $end
$var reg 1 e# dp_cnt_obj $end
$var reg 1 f# dp_clr_obj $end
$var reg 1 g# dp_set_linha $end
$var reg 1 h# dp_clr_linha $end
$var reg 1 i# dp_en_timer $end
$var reg 1 j# dp_clr_timer $end
$var reg 1 k# dp_en_e $end
$var reg 1 l# dp_q0_pos $end
$var reg 1 m# dp_q1_pos $end
$var reg 1 n# dp_pos_15 $end
$var reg 2 o# dp_obj[1:0] $end
$var reg 1 p# dp_linha $end
$var reg 1 q# dp_t2 $end
$var reg 1 r# dp_t40 $end
$var reg 1 s# dp_t100 $end
$var reg 1 t# dp_t1000 $end
$var reg 1 u# dp_e $end
$var reg 1 v# s_m_oq0 $end
$var reg 1 w# s_m_oq1 $end
$var reg 1 x# s_m_mq0 $end
$var reg 1 y# s_m_mq1 $end
$var reg 2 z# s_obj[1:0] $end
$var reg 4 {# s_pos[3:0] $end
$var reg 10 |# s_timer[9:0] $end
$var reg 10 }# s_2[9:0] $end
$var reg 10 !$ s_40[9:0] $end
$var reg 10 "$ s_100[9:0] $end
$var reg 10 #$ s_1000[9:0] $end
$scope module mux15_obstaculo_q0 $end
$var reg 16 $$ mux_inputs[15:0] $end
$var reg 4 %$ mux_control[3:0] $end
$var reg 1 &$ mux_output $end
$upscope $end
$scope module mux15_obstaculo_q1 $end
$var reg 16 '$ mux_inputs[15:0] $end
$var reg 4 ($ mux_control[3:0] $end
$var reg 1 )$ mux_output $end
$upscope $end
$scope module mux15_moeda_q0 $end
$var reg 16 *$ mux_inputs[15:0] $end
$var reg 4 +$ mux_control[3:0] $end
$var reg 1 ,$ mux_output $end
$upscope $end
$scope module mux15_moeda_q1 $end
$var reg 16 -$ mux_inputs[15:0] $end
$var reg 4 .$ mux_control[3:0] $end
$var reg 1 /$ mux_output $end
$upscope $end
$scope module mux2_q0 $end
$var reg 2 0$ mux2_inputs[1:0] $end
$var reg 1 1$ mux2_control $end
$var reg 1 2$ mux2_output $end
$upscope $end
$scope module mux2_q1 $end
$var reg 2 3$ mux2_inputs[1:0] $end
$var reg 1 4$ mux2_control $end
$var reg 1 5$ mux2_output $end
$upscope $end
$scope module cont_pos $end
$var reg 1 6$ cont4_h $end
$var reg 1 7$ cont4_clk $end
$var reg 1 8$ cont4_clr $end
$var reg 4 9$ cont4_q[3:0] $end
$upscope $end
$scope module cont_obj $end
$var reg 1 :$ cnt_en $end
$var reg 1 ;$ cnt_clk $end
$var reg 1 <$ cnt_reset $end
$var reg 2 =$ cnt_q[1:0] $end
$upscope $end
$scope module reg_linha $end
$var reg 1 >$ r1_pre $end
$var reg 1 ?$ r1_clr $end
$var reg 1 @$ r1_clk $end
$var reg 1 A$ r1_q $end
$var reg 1 B$ d $end
$var reg 1 C$ en $end
$var reg 1 D$ qi $end
$upscope $end
$scope module timer $end
$var reg 1 E$ cnt10_clk $end
$var reg 1 F$ cnt10_reset $end
$var reg 1 G$ cnt10_h $end
$var reg 10 H$ cnt10_q[9:0] $end
$upscope $end
$scope module comp_t2 $end
$var reg 10 I$ comp_a[9:0] $end
$var reg 10 J$ comp_b[9:0] $end
$var reg 1 K$ comp_s $end
$upscope $end
$scope module comp_t40 $end
$var reg 10 L$ comp_a[9:0] $end
$var reg 10 M$ comp_b[9:0] $end
$var reg 1 N$ comp_s $end
$upscope $end
$scope module comp_t100 $end
$var reg 10 O$ comp_a[9:0] $end
$var reg 10 P$ comp_b[9:0] $end
$var reg 1 Q$ comp_s $end
$upscope $end
$scope module comp_t1000 $end
$var reg 10 R$ comp_a[9:0] $end
$var reg 10 S$ comp_b[9:0] $end
$var reg 1 T$ comp_s $end
$upscope $end
$upscope $end
$upscope $end
$scope module displa1 $end
$var reg 7 U$ entrada[6:0] $end
$var reg 7 V$ saida_dez[6:0] $end
$var reg 7 W$ saida_un[6:0] $end
$var reg 4 X$ s_dez[3:0] $end
$var reg 4 Y$ s_un[3:0] $end
$scope module separador $end
$var reg 7 Z$ numero[6:0] $end
$var reg 4 [$ dezena[3:0] $end
$var reg 4 \$ unidade[3:0] $end
$var integer 32 ]$ digit1 $end
$var integer 32 ^$ digit2 $end
$comment digits is not handled $end
$upscope $end
$scope module dez $end
$var reg 4 _$ entrada[3:0] $end
$var reg 7 `$ saida[6:0] $end
$upscope $end
$scope module un $end
$var reg 4 a$ entrada[3:0] $end
$var reg 7 b$ saida[6:0] $end
$upscope $end
$upscope $end
$scope module displa2 $end
$var reg 7 c$ entrada[6:0] $end
$var reg 7 d$ saida_dez[6:0] $end
$var reg 7 e$ saida_un[6:0] $end
$var reg 4 f$ s_dez[3:0] $end
$var reg 4 g$ s_un[3:0] $end
$scope module separador $end
$var reg 7 h$ numero[6:0] $end
$var reg 4 i$ dezena[3:0] $end
$var reg 4 j$ unidade[3:0] $end
$var integer 32 k$ digit1 $end
$var integer 32 l$ digit2 $end
$comment digits is not handled $end
$upscope $end
$scope module dez $end
$var reg 4 m$ entrada[3:0] $end
$var reg 7 n$ saida[6:0] $end
$upscope $end
$scope module un $end
$var reg 4 o$ entrada[3:0] $end
$var reg 7 p$ saida[6:0] $end
$upscope $end
$upscope $end
$upscope $end
$upscope $end
$enddefinitions $end
#0
1!
0"
1#
0$
0%
0&
0'
0(
1)
1*
1+
0,
0-
0.
0/
b000 0
01
02
03
04
05
16
17
08
09
0:
b001 ;
b1111110 <
b1111110 =
b1111110 >
b1111110 ?
b00000000 @
1A
0B
1C
0D
0E
0F
0G
0H
1I
1J
1K
b000 L
0M
0N
0O
0P
0Q
0R
0S
0T
0U
1V
1W
1X
0Y
0Z
0[
b00000000 \
0]
0^
b1111110 _
b1111110 `
b1111110 a
b1111110 b
b0000000 c
b0000000 d
bUUUUUUU e
bUUUUUUU f
bUUUUUUU g
bUUUUUUU h
0i
0j
0k
0l
0m
0n
0o
b00 p
b00000000000000000 q
b00000000000000000 r
b00000000000000000 s
b00000000000000000 t
1u
1v
0w
b0000000 x
1y
0z
0{
b0000000 |
b0000000 }
b0000000 !"
1""
0#"
0$"
0%"
1&"
0'"
0("
0)"
0*"
0+"
0,"
1-"
0."
0/"
00"
01"
02"
03"
14"
05"
06"
07"
08"
09"
0:"
0;"
0<"
0="
1>"
0?"
0@"
0A"
0B"
0C"
b000110010000000000 D"
0E"
1F"
b00 G"
0H"
0I"
0J"
0K"
1L"
b00000000000000000 M"
b00000000000000000 N"
0O"
0P"
0Q"
1R"
b00000000000000000 S"
b00000000000000000 T"
0U"
1V"
0W"
1X"
b00000000000000000 Y"
0Z"
0["
1\"
0]"
1^"
b00000000000000000 _"
0`"
0a"
0b"
0c"
0d"
1e"
b00000000000000000 f"
b00000000000000000 g"
0h"
0i"
0j"
1k"
b00000000000000000 l"
b00000000000000000 m"
0n"
1o"
0p"
1q"
b00000000000000000 r"
0s"
0t"
1u"
0v"
1w"
b00000000000000000 x"
0y"
0z"
0{"
1|"
0}"
0!#
1"#
0##
1$#
0%#
0&#
0'#
b000 (#
0)#
b0000000000000000 *#
b0000000000000000 +#
b0000000000000000 ,#
b0000000000000000 -#
0.#
0/#
b00000000 0#
01#
02#
03#
04#
05#
06#
07#
08#
09#
0:#
0;#
1<#
0=#
1>#
0?#
0@#
1A#
1B#
0C#
b00 D#
0E#
b000 F#
0G#
0H#
0I#
0J#
0K#
0L#
0M#
0N#
0O#
b00 P#
0Q#
1R#
0S#
1T#
0U#
1V#
0W#
1X#
0Y#
0Z#
0[#
0\#
b00000000 ]#
0^#
b0000000000000000 _#
b0000000000000000 `#
b0000000000000000 a#
b0000000000000000 b#
0c#
1d#
0e#
1f#
0g#
1h#
0i#
1j#
0k#
0l#
0m#
0n#
b00 o#
0p#
0q#
0r#
0s#
0t#
0u#
0v#
0w#
0x#
0y#
b00 z#
b0000 {#
b0000000000 |#
b0000000010 }#
b0000101000 !$
b0001100100 "$
b1111101000 #$
b0000000000000000 $$
b0000 %$
0&$
b0000000000000000 '$
b0000 ($
0)$
b0000000000000000 *$
b0000 +$
0,$
b0000000000000000 -$
b0000 .$
0/$
b00 0$
01$
02$
b00 3$
04$
05$
06$
07$
18$
b0000 9$
0:$
0;$
1<$
b00 =$
0>$
1?$
0@$
0A$
0B$
0C$
0D$
0E$
1F$
0G$
b0000000000 H$
b0000000000 I$
b0000000010 J$
0K$
b0000000000 L$
b0000101000 M$
0N$
b0000000000 O$
b0001100100 P$
0Q$
b0000000000 R$
b1111101000 S$
0T$
b0000000 U$
b1111110 V$
b1111110 W$
b0000 X$
b0000 Y$
b0000000 Z$
b0000 [$
b0000 \$
b0 ]$
b0 ^$
b0000 _$
b1111110 `$
b0000 a$
b1111110 b$
b0000000 c$
b1111110 d$
b1111110 e$
b0000 f$
b0000 g$
b0000000 h$
b0000 i$
b0000 j$
b0 k$
b0 l$
b0000 m$
b1111110 n$
b0000 o$
b1111110 p$
#1000000
1"
1'
1B
1G
1w
1{
1'"
1."
13"
18"
1="
1##
#2000000
0"
0'
0B
0G
0w
0{
0'"
0."
03"
08"
0="
0##
#3000000
0!
1"
1'
0)
0*
0+
b010 ;
b0110000 =
0A
1B
1G
0I
0J
0K
0X
1Y
b0110000 `
b0000001 c
0u
1w
b0000001 x
0y
1{
b0000001 }
0""
1#"
0&"
1'"
0-"
1."
13"
04"
18"
1="
0>"
0F"
0L"
0X"
0^"
0e"
0q"
0w"
1##
0$#
b0000001 U$
b0110000 W$
b0001 Y$
b0000001 Z$
b0001 \$
b1 ]$
b0001 a$
b0110000 b$
#4000000
0"
0'
0B
0G
0w
0{
0'"
0."
03"
08"
0="
0##
#5000000
1"
1'
b1101101 =
1B
1G
b1101101 `
b0000010 c
1w
b0000010 x
1{
b0000010 }
1'"
1."
13"
18"
1="
1##
b0000010 U$
b1101101 W$
b0010 Y$
b0000010 Z$
b0010 \$
b10 ]$
b0010 a$
b1101101 b$
#6000000
0"
0'
0B
0G
0w
0{
0'"
0."
03"
08"
0="
0##
#7000000
1"
1'
b1111001 =
1B
1G
b1111001 `
b0000011 c
1i
b01 p
1w
b0000011 x
1{
b0000011 }
1'"
1."
13"
18"
1="
1?"
1@"
1A"
b000011001000000000 D"
1E"
b01 G"
1J"
1Q"
1W"
1]"
1c"
1j"
1p"
1v"
1##
b0000011 U$
b1111001 W$
b0011 Y$
b0000011 Z$
b0011 \$
b11 ]$
b0011 a$
b1111001 b$
#8000000
0"
0'
0B
0G
0w
0{
0'"
0."
03"
08"
0="
0##
#9000000
1"
1'
b0110011 =
1B
1G
b0110011 `
b0000100 c
1w
b0000100 x
1{
b0000100 }
1'"
1."
13"
18"
1="
1##
b0000100 U$
b0110011 W$
b0100 Y$
b0000100 Z$
b0100 \$
b100 ]$
b0100 a$
b0110011 b$
#10000000
0"
0'
0B
0G
0w
0{
0'"
0."
03"
08"
0="
0##
#11000000
1"
1'
b1011011 =
1B
1G
b1011011 `
b0000101 c
1w
b0000101 x
1{
b0000101 }
1'"
1."
13"
18"
1="
1##
b0000101 U$
b1011011 W$
b0101 Y$
b0000101 Z$
b0101 \$
b101 ]$
b0101 a$
b1011011 b$
#12000000
0"
0'
0B
0G
0w
0{
0'"
0."
03"
08"
0="
0##
#13000000
1"
1'
b1011111 =
1B
1G
b1011111 `
b0000110 c
0i
1w
b0000110 x
1{
b0000110 }
1'"
1."
13"
18"
1="
0?"
0@"
0A"
0E"
0J"
0Q"
0W"
0]"
0c"
0j"
0p"
0v"
1##
b0000110 U$
b1011111 W$
b0110 Y$
b0000110 Z$
b0110 \$
b110 ]$
b0110 a$
b1011111 b$
#14000000
0"
0'
0B
0G
0w
0{
0'"
0."
03"
08"
0="
0##
#15000000
1"
1'
b1110000 =
1B
1G
b1110000 `
b0000111 c
1w
b0000111 x
1{
b0000111 }
1'"
1."
13"
18"
1="
1##
b0000111 U$
b1110000 W$
b0111 Y$
b0000111 Z$
b0111 \$
b111 ]$
b0111 a$
b1110000 b$
#16000000
0"
0'
0B
0G
0w
0{
0'"
0."
03"
08"
0="
0##
#17000000
1"
1'
b1111111 =
1B
1G
b1111111 `
b0001000 c
1w
b0001000 x
1{
b0001000 }
1'"
1."
13"
18"
1="
1##
b0001000 U$
b1111111 W$
b1000 Y$
b0001000 Z$
b1000 \$
b1000 ]$
b1000 a$
b1111111 b$
#18000000
0"
0'
1,
06
07
0B
0G
1M
0V
0W
1n
0w
0{
0'"
0."
03"
16"
08"
19"
1<"
0="
1{"
0|"
1!#
0"#
0##
1.#
1I#
#19000000
1"
1'
b1111011 =
1B
1G
b1111011 `
b0001001 c
1i
1k
1l
b10 p
1w
b0001001 x
1{
b0001001 }
1'"
1."
13"
18"
1="
1?"
1@"
1A"
1C"
b000001100100000000 D"
1E"
b10 G"
1H"
1J"
1O"
1Q"
1U"
1W"
1]"
1c"
1j"
1p"
1v"
1##
b0001001 U$
b1111011 W$
b1001 Y$
b0001001 Z$
b1001 \$
b1001 ]$
b1001 a$
b1111011 b$
#20000000
0"
0'
0,
0B
0G
0M
0w
0{
0'"
0."
03"
06"
08"
0="
0##
#21000000
1"
1'
b0110000 <
b1111110 =
1B
1G
b0110000 _
b1111110 `
b0001010 c
1w
b0001010 x
1{
b0001010 }
1'"
1."
13"
18"
1="
1##
b0001010 U$
b0110000 V$
b1111110 W$
b0001 X$
b0000 Y$
b0001010 Z$
b0001 [$
b0000 \$
b0 ]$
b1 ^$
b0001 _$
b0110000 `$
b0000 a$
b1111110 b$
#22000000
0"
0'
1-
16
17
0B
0G
1N
1V
1W
0n
0w
0{
0'"
0."
03"
17"
08"
09"
0<"
0="
0{"
1|"
0!#
1"#
0##
0.#
0I#
#23000000
1"
1'
b0110000 =
1B
1G
b0110000 `
b0001011 c
1w
b0001011 x
1{
b0001011 }
1'"
1."
13"
18"
1="
1##
b0001011 U$
b0110000 W$
b0001 Y$
b0001011 Z$
b0001 \$
b1 ]$
b0001 a$
b0110000 b$
#24000000
0"
0'
0-
0B
0G
0N
0w
0{
0'"
0."
03"
07"
08"
0="
0##
#25000000
1"
1'
b1101101 =
1B
1G
b1101101 `
b0001100 c
0i
1w
b0001100 x
1{
b0001100 }
1'"
1."
13"
18"
1="
0?"
0@"
0A"
0E"
0J"
0Q"
0W"
0]"
0c"
0j"
0p"
0v"
1##
b0001100 U$
b1101101 W$
b0010 Y$
b0001100 Z$
b0010 \$
b10 ]$
b0010 a$
b1101101 b$
#26000000
0"
0'
0B
0G
0w
0{
0'"
0."
03"
08"
0="
0##
#27000000
1"
1'
b1111001 =
1B
1G
b1111001 `
b0001101 c
1w
b0001101 x
1{
b0001101 }
1'"
1."
13"
18"
1="
1##
b0001101 U$
b1111001 W$
b0011 Y$
b0001101 Z$
b0011 \$
b11 ]$
b0011 a$
b1111001 b$
#28000000
0"
0'
1(
11
0B
0G
1H
1Q
0w
0{
1%"
0'"
1("
1+"
0."
03"
08"
0="
0##
#29000000
1"
1'
b0110011 =
1B
1G
b0110011 `
b0001110 c
1w
b0001110 x
1{
b0001110 }
1'"
1."
13"
18"
1="
1##
b0001110 U$
b0110011 W$
b0100 Y$
b0001110 Z$
b0100 \$
b100 ]$
b0100 a$
b0110011 b$
#30000000
0"
0'
0(
0B
0G
0H
0w
0{
0%"
0'"
0."
03"
08"
0="
0##
#31000000
1"
1'
b1011011 =
1B
1G
b1011011 `
b0001111 c
1i
1m
b11 p
b00000000000000001 s
1w
b0001111 x
1{
b0001111 }
1'"
1."
13"
18"
1="
1?"
1@"
1A"
b000000110010000000 D"
1E"
b11 G"
1J"
b00000000000000001 M"
1Q"
b00000000000000001 S"
1W"
b00000000000000001 Y"
1]"
1a"
1c"
1h"
1j"
1n"
1p"
1v"
1##
b0001111 U$
b1011011 W$
b0101 Y$
b0001111 Z$
b0101 \$
b101 ]$
b0101 a$
b1011011 b$
#32000000
0"
0'
0B
0G
0w
0{
0'"
0."
03"
08"
0="
0##
#33000000
1"
1'
b1011111 =
1B
1G
b1011111 `
b0010000 c
1w
b0010000 x
1{
b0010000 }
1'"
1."
13"
18"
1="
1##
b0010000 U$
b1011111 W$
b0110 Y$
b0010000 Z$
b0110 \$
b110 ]$
b0110 a$
b1011111 b$
#34000000
0"
0'
0B
0G
0w
0{
0'"
0."
03"
08"
0="
0##
#35000000
1"
1'
b1110000 =
1B
1G
b1110000 `
b0010001 c
1w
b0010001 x
1{
b0010001 }
1'"
1."
13"
18"
1="
1##
b0010001 U$
b1110000 W$
b0111 Y$
b0010001 Z$
b0111 \$
b111 ]$
b0111 a$
b1110000 b$
#36000000
0"
0'
1)
01
0B
0G
1I
0Q
0w
0{
1&"
0'"
0("
0+"
0."
03"
08"
0="
0##
#37000000
1"
1'
b1111111 =
1B
1G
b1111111 `
b0010010 c
0i
1w
b0010010 x
1{
b0010010 }
1'"
1."
13"
18"
1="
0?"
0@"
0A"
0E"
0J"
0Q"
0W"
0]"
0c"
0j"
0p"
0v"
1##
b0010010 U$
b1111111 W$
b1000 Y$
b0010010 Z$
b1000 \$
b1000 ]$
b1000 a$
b1111111 b$
#38000000
0"
0'
0)
0B
0G
0I
0w
0{
0&"
0'"
0."
03"
08"
0="
0##
#39000000
1"
1'
b1111011 =
1B
1G
b1111011 `
b0010011 c
1w
b0010011 x
1{
b0010011 }
1'"
1."
13"
18"
1="
1##
b0010011 U$
b1111011 W$
b1001 Y$
b0010011 Z$
b1001 \$
b1001 ]$
b1001 a$
b1111011 b$
#40000000
0"
0'
0B
0G
0w
0{
0'"
0."
03"
08"
0="
0##
#41000000
1"
1'
b1101101 <
b1111110 =
1B
1G
b1101101 _
b1111110 `
b0010100 c
1w
b0010100 x
1{
b0010100 }
1'"
1."
13"
18"
1="
1##
b0010100 U$
b1101101 V$
b1111110 W$
b0010 X$
b0000 Y$
b0010100 Z$
b0010 [$
b0000 \$
b0 ]$
b10 ^$
b0010 _$
b1101101 `$
b0000 a$
b1111110 b$
#42000000
0"
0'
1.
12
0B
0G
1O
1R
0w
0{
0'"
1,"
0."
1/"
12"
03"
08"
0="
0##
#43000000
1"
1'
b0110000 =
1B
1G
b0110000 `
b0010101 c
1i
0k
0l
0m
b00 p
b00000000000000001 q
b00000000000000011 s
1w
b0010101 x
1{
b0010101 }
1'"
1."
13"
18"
1="
1?"
1@"
1A"
0C"
b100000011001000000 D"
1E"
b00 G"
0H"
1J"
b00000000000000011 M"
0O"
1Q"
b00000000000000011 S"
0U"
1W"
b00000000000000011 Y"
1]"
0a"
1c"
b00000000000000001 f"
0h"
1j"
b00000000000000001 l"
0n"
1p"
b00000000000000001 r"
1v"
1##
b0000000000000001 *#
13#
1G#
b0000000000000001 `#
1l#
1x#
b0000000000000001 *$
1,$
b01 0$
12$
b0010101 U$
b0110000 W$
b0001 Y$
b0010101 Z$
b0001 \$
b1 ]$
b0001 a$
b0110000 b$
#44000000
0"
0'
0.
0B
0G
0O
0w
0{
0'"
0,"
0."
03"
08"
0="
0##
#45000000
1"
1'
b1101101 =
1B
1G
b1101101 `
b0010110 c
1w
b0010110 x
1{
b0010110 }
1'"
1."
13"
18"
1="
1##
b0010110 U$
b1101101 W$
b0010 Y$
b0010110 Z$
b0010 \$
b10 ]$
b0010 a$
b1101101 b$
#46000000
0"
0'
0B
0G
0w
0{
0'"
0."
03"
08"
0="
0##
