LCD/lcd_driver/test.vcd
$date
  Sat Dec 17 19:40:36 2022
$end
$version
  GHDL v0
$end
$timescale
  1 fs
$end
$scope module standard $end
$upscope $end
$scope module std_logic_1164 $end
$upscope $end
$scope module numeric_std $end
$upscope $end
$scope module tb_lcd_driver $end
$var reg 1 ! sclk $end
$var reg 1 " srender $end
$var reg 1 # splayer_pos $end
$var reg 1 $ sfinished $end
$var reg 1 % se $end
$var reg 1 & srs $end
$var reg 16 ' sq0_moeda[15:0] $end
$var reg 16 ( sq1_moeda[15:0] $end
$var reg 16 ) sq0_obstaculo[15:0] $end
$var reg 16 * sq1_obstaculo[15:0] $end
$var reg 8 + sdata[7:0] $end
$var reg 3 , scmd[2:0] $end
$scope module instance_lcd_driver $end
$var reg 1 - clk $end
$var reg 3 . cmd[2:0] $end
$var reg 1 / render $end
$var reg 16 0 q0_moeda[15:0] $end
$var reg 16 1 q1_moeda[15:0] $end
$var reg 16 2 q0_obstaculo[15:0] $end
$var reg 16 3 q1_obstaculo[15:0] $end
$var reg 1 4 player_pos $end
$var reg 1 5 finished $end
$var reg 8 6 data[7:0] $end
$var reg 1 7 e $end
$var reg 1 8 rs $end
$var reg 1 9 q0_pos $end
$var reg 1 : q1_pos $end
$var reg 1 ; pos_15 $end
$var reg 1 < linha $end
$var reg 1 = t2 $end
$var reg 1 > t40 $end
$var reg 1 ? t100 $end
$var reg 1 @ t1000 $end
$var reg 1 A en_e $end
$var reg 1 B clr_pos $end
$var reg 1 C en_pos $end
$var reg 1 D clr_linha $end
$var reg 1 E set_linha $end
$var reg 1 F en_obj $end
$var reg 1 G clr_obj $end
$var reg 1 H clr_timer $end
$var reg 1 I en_timer $end
$var reg 2 J obj[1:0] $end
$scope module controladora $end
$var reg 1 K fsm_clk $end
$var reg 3 L fsm_cmd[2:0] $end
$var reg 1 M fsm_q0_pos $end
$var reg 1 N fsm_q1_pos $end
$var reg 1 O fsm_player_pos $end
$var reg 1 P fsm_pos $end
$var reg 1 Q fsm_linha $end
$var reg 1 R fsm_t2 $end
$var reg 1 S fsm_t40 $end
$var reg 1 T fsm_t100 $end
$var reg 1 U fsm_t1000 $end
$var reg 2 V fsm_obj[1:0] $end
$var reg 1 W fsm_render $end
$var reg 1 X fsm_clr_pos $end
$var reg 1 Y fsm_en_pos $end
$var reg 1 Z fsm_clr_linha $end
$var reg 1 [ fsm_set_linha $end
$var reg 1 \ fsm_clr_timer $end
$var reg 1 ] fsm_en_timer $end
$var reg 1 ^ fsm_clr_obj $end
$var reg 1 _ fsm_en_obj $end
$var reg 1 ` fsm_en_e $end
$var reg 1 a fsm_finish $end
$var reg 1 b fsm_rs $end
$var reg 8 c fsm_dt[7:0] $end
$comment atual_estado is not handled $end
$comment prox_estado is not handled $end
$upscope $end
$scope module datapath $end
$var reg 1 d dp_clk $end
$var reg 16 e dp_q0obst[15:0] $end
$var reg 16 f dp_q0moeda[15:0] $end
$var reg 16 g dp_q1obst[15:0] $end
$var reg 16 h dp_q1moeda[15:0] $end
$var reg 1 i dp_cnt_pos $end
$var reg 1 j dp_clr_pos $end
$var reg 1 k dp_cnt_obj $end
$var reg 1 l dp_clr_obj $end
$var reg 1 m dp_set_linha $end
$var reg 1 n dp_clr_linha $end
$var reg 1 o dp_en_timer $end
$var reg 1 p dp_clr_timer $end
$var reg 1 q dp_en_e $end
$var reg 1 r dp_q0_pos $end
$var reg 1 s dp_q1_pos $end
$var reg 1 t dp_pos_15 $end
$var reg 2 u dp_obj[1:0] $end
$var reg 1 v dp_linha $end
$var reg 1 w dp_t2 $end
$var reg 1 x dp_t40 $end
$var reg 1 y dp_t100 $end
$var reg 1 z dp_t1000 $end
$var reg 1 { dp_e $end
$var reg 1 | s_m_oq0 $end
$var reg 1 } s_m_oq1 $end
$var reg 1 !" s_m_mq0 $end
$var reg 1 "" s_m_mq1 $end
$var reg 2 #" s_obj[1:0] $end
$var reg 4 $" s_pos[3:0] $end
$var reg 10 %" s_timer[9:0] $end
$var reg 10 &" s_2[9:0] $end
$var reg 10 '" s_40[9:0] $end
$var reg 10 (" s_100[9:0] $end
$var reg 10 )" s_1000[9:0] $end
$scope module mux15_obstaculo_q0 $end
$var reg 16 *" mux_inputs[15:0] $end
$var reg 4 +" mux_control[3:0] $end
$var reg 1 ," mux_output $end
$upscope $end
$scope module mux15_obstaculo_q1 $end
$var reg 16 -" mux_inputs[15:0] $end
$var reg 4 ." mux_control[3:0] $end
$var reg 1 /" mux_output $end
$upscope $end
$scope module mux15_moeda_q0 $end
$var reg 16 0" mux_inputs[15:0] $end
$var reg 4 1" mux_control[3:0] $end
$var reg 1 2" mux_output $end
$upscope $end
$scope module mux15_moeda_q1 $end
$var reg 16 3" mux_inputs[15:0] $end
$var reg 4 4" mux_control[3:0] $end
$var reg 1 5" mux_output $end
$upscope $end
$scope module mux2_q0 $end
$var reg 2 6" mux2_inputs[1:0] $end
$var reg 1 7" mux2_control $end
$var reg 1 8" mux2_output $end
$upscope $end
$scope module mux2_q1 $end
$var reg 2 9" mux2_inputs[1:0] $end
$var reg 1 :" mux2_control $end
$var reg 1 ;" mux2_output $end
$upscope $end
$scope module cont_pos $end
$var reg 1 <" cont4_h $end
$var reg 1 =" cont4_clk $end
$var reg 1 >" cont4_clr $end
$var reg 4 ?" cont4_q[3:0] $end
$upscope $end
$scope module cont_obj $end
$var reg 1 @" cnt_en $end
$var reg 1 A" cnt_clk $end
$var reg 1 B" cnt_reset $end
$var reg 2 C" cnt_q[1:0] $end
$upscope $end
$scope module reg_linha $end
$var reg 1 D" r1_pre $end
$var reg 1 E" r1_clr $end
$var reg 1 F" r1_clk $end
$var reg 1 G" r1_q $end
$var reg 1 H" d $end
$var reg 1 I" en $end
$var reg 1 J" qi $end
$upscope $end
$scope module timer $end
$var reg 1 K" cnt10_clk $end
$var reg 1 L" cnt10_reset $end
$var reg 1 M" cnt10_h $end
$var reg 10 N" cnt10_q[9:0] $end
$upscope $end
$scope module comp_t2 $end
$var reg 10 O" comp_a[9:0] $end
$var reg 10 P" comp_b[9:0] $end
$var reg 1 Q" comp_s $end
$upscope $end
$scope module comp_t40 $end
$var reg 10 R" comp_a[9:0] $end
$var reg 10 S" comp_b[9:0] $end
$var reg 1 T" comp_s $end
$upscope $end
$scope module comp_t100 $end
$var reg 10 U" comp_a[9:0] $end
$var reg 10 V" comp_b[9:0] $end
$var reg 1 W" comp_s $end
$upscope $end
$scope module comp_t1000 $end
$var reg 10 X" comp_a[9:0] $end
$var reg 10 Y" comp_b[9:0] $end
$var reg 1 Z" comp_s $end
$upscope $end
$upscope $end
$upscope $end
$upscope $end
$enddefinitions $end
#0
0!
1"
1#
0$
0%
0&
b0100100000000001 '
b0000100000000000 (
b1001000000000000 )
b1000000000000000 *
b00000000 +
b000 ,
0-
b000 .
1/
b0100100000000001 0
b0000100000000000 1
b1001000000000000 2
b1000000000000000 3
14
05
b00000000 6
07
08
19
0:
0;
0<
0=
0>
0?
0@
0A
1B
0C
1D
0E
0F
1G
1H
0I
b00 J
0K
b000 L
1M
0N
1O
0P
0Q
0R
0S
0T
0U
b00 V
1W
1X
0Y
1Z
0[
1\
0]
1^
0_
0`
0a
0b
b00000000 c
0d
b1001000000000000 e
b0100100000000001 f
b1000000000000000 g
b0000100000000000 h
0i
1j
0k
1l
0m
1n
0o
1p
0q
1r
0s
0t
b00 u
0v
0w
0x
0y
0z
0{
0|
0}
1!"
0""
b00 #"
b0000 $"
b0000000000 %"
b0000000010 &"
b0000101000 '"
b0001100100 ("
b1111101000 )"
b1001000000000000 *"
b0000 +"
0,"
b1000000000000000 -"
b0000 ."
0/"
b0100100000000001 0"
b0000 1"
12"
b0000100000000000 3"
b0000 4"
05"
b01 6"
07"
18"
b00 9"
0:"
0;"
0<"
0="
1>"
b0000 ?"
0@"
0A"
1B"
b00 C"
0D"
1E"
0F"
0G"
0H"
0I"
0J"
0K"
1L"
0M"
b0000000000 N"
b0000000000 O"
b0000000010 P"
0Q"
b0000000000 R"
b0000101000 S"
0T"
b0000000000 U"
b0001100100 V"
0W"
b0000000000 X"
b1111101000 Y"
0Z"
#50000000000
1!
1-
0B
0D
0G
0H
1I
1K
0X
0Z
0\
1]
0^
1d
0j
0l
0n
1o
0p
1="
0>"
1A"
0B"
0E"
1F"
1K"
0L"
1M"
#100000000000
0!
0-
0K
0d
0="
0A"
0F"
0K"
#150000000000
1!
1-
1K
1d
b0000000001 %"
1="
1A"
1F"
1K"
b0000000001 N"
b0000000001 O"
b0000000001 R"
b0000000001 U"
b0000000001 X"
#200000000000
0!
0-
0K
0d
0="
0A"
0F"
0K"
#250000000000
1!
1-
1=
1K
1R
1d
1w
b0000000010 %"
1="
1A"
1F"
1K"
b0000000010 N"
b0000000010 O"
1Q"
b0000000010 R"
b0000000010 U"
b0000000010 X"
#300000000000
0!
0-
0K
0d
0="
0A"
0F"
0K"
#350000000000
1!
1-
1K
1d
b0000000011 %"
1="
1A"
1F"
1K"
b0000000011 N"
b0000000011 O"
b0000000011 R"
b0000000011 U"
b0000000011 X"
#400000000000
0!
0-
0K
0d
0="
0A"
0F"
0K"
#450000000000
1!
1-
1K
1d
b0000000100 %"
1="
1A"
1F"
1K"
b0000000100 N"
b0000000100 O"
b0000000100 R"
b0000000100 U"
b0000000100 X"
#500000000000
0!
0-
0K
0d
0="
0A"
0F"
0K"
#550000000000
1!
1-
1K
1d
b0000000101 %"
1="
1A"
1F"
1K"
b0000000101 N"
b0000000101 O"
b0000000101 R"
b0000000101 U"
b0000000101 X"
#600000000000
0!
0-
0K
0d
0="
0A"
0F"
0K"
#650000000000
1!
1-
1K
1d
b0000000110 %"
1="
1A"
1F"
1K"
b0000000110 N"
b0000000110 O"
b0000000110 R"
b0000000110 U"
b0000000110 X"
#700000000000
0!
0-
0K
0d
0="
0A"
0F"
0K"
#750000000000
1!
1-
1K
1d
b0000000111 %"
1="
1A"
1F"
1K"
b0000000111 N"
b0000000111 O"
b0000000111 R"
b0000000111 U"
b0000000111 X"
#800000000000
0!
0-
0K
0d
0="
0A"
0F"
0K"
#850000000000
1!
1-
1K
1d
b0000001000 %"
1="
1A"
1F"
1K"
b0000001000 N"
b0000001000 O"
b0000001000 R"
b0000001000 U"
b0000001000 X"
#900000000000
0!
0-
0K
0d
0="
0A"
0F"
0K"
#950000000000
1!
1-
1K
1d
b0000001001 %"
1="
1A"
1F"
1K"
b0000001001 N"
b0000001001 O"
b0000001001 R"
b0000001001 U"
b0000001001 X"
#1000000000000
0!
0-
0K
0d
0="
0A"
0F"
0K"
#1050000000000
1!
1-
1K
1d
b0000001010 %"
1="
1A"
1F"
1K"
b0000001010 N"
b0000001010 O"
b0000001010 R"
b0000001010 U"
b0000001010 X"
#1100000000000
0!
0-
0K
0d
0="
0A"
0F"
0K"
#1150000000000
1!
1-
1K
1d
b0000001011 %"
1="
1A"
1F"
1K"
b0000001011 N"
b0000001011 O"
b0000001011 R"
b0000001011 U"
b0000001011 X"
#1200000000000
0!
0-
0K
0d
0="
0A"
0F"
0K"
#1250000000000
1!
1-
1K
1d
b0000001100 %"
1="
1A"
1F"
1K"
b0000001100 N"
b0000001100 O"
b0000001100 R"
b0000001100 U"
b0000001100 X"
#1300000000000
0!
0-
0K
0d
0="
0A"
0F"
0K"
#1350000000000
1!
1-
1K
1d
b0000001101 %"
1="
1A"
1F"
1K"
b0000001101 N"
b0000001101 O"
b0000001101 R"
b0000001101 U"
b0000001101 X"
#1400000000000
0!
0-
0K
0d
0="
0A"
0F"
0K"
#1450000000000
1!
1-
1K
1d
b0000001110 %"
1="
1A"
1F"
1K"
b0000001110 N"
b0000001110 O"
b0000001110 R"
b0000001110 U"
b0000001110 X"
#1500000000000
0!
0-
0K
0d
0="
0A"
0F"
0K"
#1550000000000
1!
1-
1K
1d
b0000001111 %"
1="
1A"
1F"
1K"
b0000001111 N"
b0000001111 O"
b0000001111 R"
b0000001111 U"
b0000001111 X"
#1600000000000
0!
0-
0K
0d
0="
0A"
0F"
0K"
#1650000000000
1!
1-
1K
1d
b0000010000 %"
1="
1A"
1F"
1K"
b0000010000 N"
b0000010000 O"
b0000010000 R"
b0000010000 U"
b0000010000 X"
#1700000000000
0!
0-
0K
0d
0="
0A"
0F"
0K"
#1750000000000
1!
1-
1K
1d
b0000010001 %"
1="
1A"
1F"
1K"
b0000010001 N"
b0000010001 O"
b0000010001 R"
b0000010001 U"
b0000010001 X"
#1800000000000
0!
0-
0K
0d
0="
0A"
0F"
0K"
#1850000000000
1!
1-
1K
1d
b0000010010 %"
1="
1A"
1F"
1K"
b0000010010 N"
b0000010010 O"
b0000010010 R"
b0000010010 U"
b0000010010 X"
#1900000000000
0!
0-
0K
0d
0="
0A"
0F"
0K"
#1950000000000
1!
1-
1K
1d
b0000010011 %"
1="
1A"
1F"
1K"
b0000010011 N"
b0000010011 O"
b0000010011 R"
b0000010011 U"
b0000010011 X"
#2000000000000
0!
0-
0K
0d
0="
0A"
0F"
0K"
#2050000000000
1!
1-
1K
1d
b0000010100 %"
1="
1A"
1F"
1K"
b0000010100 N"
b0000010100 O"
b0000010100 R"
b0000010100 U"
b0000010100 X"
#2100000000000
0!
0-
0K
0d
0="
0A"
0F"
0K"
#2150000000000
1!
1-
1K
1d
b0000010101 %"
1="
1A"
1F"
1K"
b0000010101 N"
b0000010101 O"
b0000010101 R"
b0000010101 U"
b0000010101 X"
#2200000000000
0!
0-
0K
0d
0="
0A"
0F"
0K"
#2250000000000
1!
1-
1K
1d
b0000010110 %"
1="
1A"
1F"
1K"
b0000010110 N"
b0000010110 O"
b0000010110 R"
b0000010110 U"
b0000010110 X"
#2300000000000
0!
0-
0K
0d
0="
0A"
0F"
0K"
#2350000000000
1!
1-
1K
1d
b0000010111 %"
1="
1A"
1F"
1K"
b0000010111 N"
b0000010111 O"
b0000010111 R"
b0000010111 U"
b0000010111 X"
#2400000000000
0!
0-
0K
0d
0="
0A"
0F"
0K"
#2450000000000
1!
1-
1K
1d
b0000011000 %"
1="
1A"
1F"
1K"
b0000011000 N"
b0000011000 O"
b0000011000 R"
b0000011000 U"
b0000011000 X"
#2500000000000
0!
0-
0K
0d
0="
0A"
0F"
0K"
#2550000000000
1!
1-
1K
1d
b0000011001 %"
1="
1A"
1F"
1K"
b0000011001 N"
b0000011001 O"
b0000011001 R"
b0000011001 U"
b0000011001 X"
#2600000000000
0!
0-
0K
0d
0="
0A"
0F"
0K"
#2650000000000
1!
1-
1K
1d
b0000011010 %"
1="
1A"
1F"
1K"
b0000011010 N"
b0000011010 O"
b0000011010 R"
b0000011010 U"
b0000011010 X"
#2700000000000
0!
0-
0K
0d
0="
0A"
0F"
0K"
#2750000000000
1!
1-
1K
1d
b0000011011 %"
1="
1A"
1F"
1K"
b0000011011 N"
b0000011011 O"
b0000011011 R"
b0000011011 U"
b0000011011 X"
#2800000000000
0!
0-
0K
0d
0="
0A"
0F"
0K"
#2850000000000
1!
1-
1K
1d
b0000011100 %"
1="
1A"
1F"
1K"
b0000011100 N"
b0000011100 O"
b0000011100 R"
b0000011100 U"
b0000011100 X"
#2900000000000
0!
0-
0K
0d
0="
0A"
0F"
0K"
#2950000000000
1!
1-
1K
1d
b0000011101 %"
1="
1A"
1F"
1K"
b0000011101 N"
b0000011101 O"
b0000011101 R"
b0000011101 U"
b0000011101 X"
#3000000000000
0!
0-
0K
0d
0="
0A"
0F"
0K"
#3050000000000
1!
1-
1K
1d
b0000011110 %"
1="
1A"
1F"
1K"
b0000011110 N"
b0000011110 O"
b0000011110 R"
b0000011110 U"
b0000011110 X"
#3100000000000
0!
0-
0K
0d
0="
0A"
0F"
0K"
#3150000000000
1!
1-
1K
1d
b0000011111 %"
1="
1A"
1F"
1K"
b0000011111 N"
b0000011111 O"
b0000011111 R"
b0000011111 U"
b0000011111 X"
#3200000000000
0!
0-
0K
0d
0="
0A"
0F"
0K"
#3250000000000
1!
1-
1K
1d
b0000100000 %"
1="
1A"
1F"
1K"
b0000100000 N"
b0000100000 O"
b0000100000 R"
b0000100000 U"
b0000100000 X"
#3300000000000
0!
0-
0K
0d
0="
0A"
0F"
0K"
#3350000000000
1!
1-
1K
1d
b0000100001 %"
1="
1A"
1F"
1K"
b0000100001 N"
b0000100001 O"
b0000100001 R"
b0000100001 U"
b0000100001 X"
#3400000000000
0!
0-
0K
0d
0="
0A"
0F"
0K"
#3450000000000
1!
1-
1K
1d
b0000100010 %"
1="
1A"
1F"
1K"
b0000100010 N"
b0000100010 O"
b0000100010 R"
b0000100010 U"
b0000100010 X"
#3500000000000
0!
0-
0K
0d
0="
0A"
0F"
0K"
#3550000000000
1!
1-
1K
1d
b0000100011 %"
1="
1A"
1F"
1K"
b0000100011 N"
b0000100011 O"
b0000100011 R"
b0000100011 U"
b0000100011 X"
#3600000000000
0!
0-
0K
0d
0="
0A"
0F"
0K"
#3650000000000
1!
1-
1K
1d
b0000100100 %"
1="
1A"
1F"
1K"
b0000100100 N"
b0000100100 O"
b0000100100 R"
b0000100100 U"
b0000100100 X"
#3700000000000
0!
0-
0K
0d
0="
0A"
0F"
0K"
#3750000000000
1!
1-
1K
1d
b0000100101 %"
1="
1A"
1F"
1K"
b0000100101 N"
b0000100101 O"
b0000100101 R"
b0000100101 U"
b0000100101 X"
#3800000000000
0!
0-
0K
0d
0="
0A"
0F"
0K"
#3850000000000
1!
1-
1K
1d
b0000100110 %"
1="
1A"
1F"
1K"
b0000100110 N"
b0000100110 O"
b0000100110 R"
b0000100110 U"
b0000100110 X"
#3900000000000
0!
0-
0K
0d
0="
0A"
0F"
0K"
#3950000000000
1!
1-
1K
1d
b0000100111 %"
1="
1A"
1F"
1K"
b0000100111 N"
b0000100111 O"
b0000100111 R"
b0000100111 U"
b0000100111 X"
#4000000000000
0!
0-
0K
0d
0="
0A"
0F"
0K"
#4050000000000
1!
1-
1>
1K
1S
1d
1x
b0000101000 %"
1="
1A"
1F"
1K"
b0000101000 N"
b0000101000 O"
b0000101000 R"
1T"
b0000101000 U"
b0000101000 X"
#4100000000000
0!
0-
0K
0d
0="
0A"
0F"
0K"
#4150000000000
1!
1-
1K
1d
b0000101001 %"
1="
1A"
1F"
1K"
b0000101001 N"
b0000101001 O"
b0000101001 R"
b0000101001 U"
b0000101001 X"
#4200000000000
0!
0-
0K
0d
0="
0A"
0F"
0K"
#4250000000000
1!
1-
1K
1d
b0000101010 %"
1="
1A"
1F"
1K"
b0000101010 N"
b0000101010 O"
b0000101010 R"
b0000101010 U"
b0000101010 X"
#4300000000000
0!
0-
0K
0d
0="
0A"
0F"
0K"
#4350000000000
1!
1-
1K
1d
b0000101011 %"
1="
1A"
1F"
1K"
b0000101011 N"
b0000101011 O"
b0000101011 R"
b0000101011 U"
b0000101011 X"
#4400000000000
0!
0-
0K
0d
0="
0A"
0F"
0K"
#4450000000000
1!
1-
1K
1d
b0000101100 %"
1="
1A"
1F"
1K"
b0000101100 N"
b0000101100 O"
b0000101100 R"
b0000101100 U"
b0000101100 X"
#4500000000000
0!
0-
0K
0d
0="
0A"
0F"
0K"
#4550000000000
1!
1-
1K
1d
b0000101101 %"
1="
1A"
1F"
1K"
b0000101101 N"
b0000101101 O"
b0000101101 R"
b0000101101 U"
b0000101101 X"
#4600000000000
0!
0-
0K
0d
0="
0A"
0F"
0K"
#4650000000000
1!
1-
1K
1d
b0000101110 %"
1="
1A"
1F"
1K"
b0000101110 N"
b0000101110 O"
b0000101110 R"
b0000101110 U"
b0000101110 X"
#4700000000000
0!
0-
0K
0d
0="
0A"
0F"
0K"
#4750000000000
1!
1-
1K
1d
b0000101111 %"
1="
1A"
1F"
1K"
b0000101111 N"
b0000101111 O"
b0000101111 R"
b0000101111 U"
b0000101111 X"
#4800000000000
0!
0-
0K
0d
0="
0A"
0F"
0K"
#4850000000000
1!
1-
1K
1d
b0000110000 %"
1="
1A"
1F"
1K"
b0000110000 N"
b0000110000 O"
b0000110000 R"
b0000110000 U"
b0000110000 X"
#4900000000000
0!
0-
0K
0d
0="
0A"
0F"
0K"
#4950000000000
1!
1-
1K
1d
b0000110001 %"
1="
1A"
1F"
1K"
b0000110001 N"
b0000110001 O"
b0000110001 R"
b0000110001 U"
b0000110001 X"
#5000000000000
0!
0-
0K
0d
0="
0A"
0F"
0K"
#5050000000000
1!
1-
1K
1d
b0000110010 %"
1="
1A"
1F"
1K"
b0000110010 N"
b0000110010 O"
b0000110010 R"
b0000110010 U"
b0000110010 X"
#5100000000000
0!
0-
0K
0d
0="
0A"
0F"
0K"
#5150000000000
1!
1-
1K
1d
b0000110011 %"
1="
1A"
1F"
1K"
b0000110011 N"
b0000110011 O"
b0000110011 R"
b0000110011 U"
b0000110011 X"
#5200000000000
0!
0-
0K
0d
0="
0A"
0F"
0K"
#5250000000000
1!
1-
1K
1d
b0000110100 %"
1="
1A"
1F"
1K"
b0000110100 N"
b0000110100 O"
b0000110100 R"
b0000110100 U"
b0000110100 X"
#5300000000000
0!
0-
0K
0d
0="
0A"
0F"
0K"
#5350000000000
1!
1-
1K
1d
b0000110101 %"
1="
1A"
1F"
1K"
b0000110101 N"
b0000110101 O"
b0000110101 R"
b0000110101 U"
b0000110101 X"
#5400000000000
0!
0-
0K
0d
0="
0A"
0F"
0K"
#5450000000000
1!
1-
1K
1d
b0000110110 %"
1="
1A"
1F"
1K"
b0000110110 N"
b0000110110 O"
b0000110110 R"
b0000110110 U"
b0000110110 X"
#5500000000000
0!
0-
0K
0d
0="
0A"
0F"
0K"
#5550000000000
1!
1-
1K
1d
b0000110111 %"
1="
1A"
1F"
1K"
b0000110111 N"
b0000110111 O"
b0000110111 R"
b0000110111 U"
b0000110111 X"
#5600000000000
0!
0-
0K
0d
0="
0A"
0F"
0K"
#5650000000000
1!
1-
1K
1d
b0000111000 %"
1="
1A"
1F"
1K"
b0000111000 N"
b0000111000 O"
b0000111000 R"
b0000111000 U"
b0000111000 X"
#5700000000000
0!
0-
0K
0d
0="
0A"
0F"
0K"
#5750000000000
1!
1-
1K
1d
b0000111001 %"
1="
1A"
1F"
1K"
b0000111001 N"
b0000111001 O"
b0000111001 R"
b0000111001 U"
b0000111001 X"
#5800000000000
0!
0-
0K
0d
0="
0A"
0F"
0K"
#5850000000000
1!
1-
1K
1d
b0000111010 %"
1="
1A"
1F"
1K"
b0000111010 N"
b0000111010 O"
b0000111010 R"
b0000111010 U"
b0000111010 X"
#5900000000000
0!
0-
0K
0d
0="
0A"
0F"
0K"
#5950000000000
1!
1-
1K
1d
b0000111011 %"
1="
1A"
1F"
1K"
b0000111011 N"
b0000111011 O"
b0000111011 R"
b0000111011 U"
b0000111011 X"
#6000000000000
0!
0-
0K
0d
0="
0A"
0F"
0K"
#6050000000000
1!
1-
1K
1d
b0000111100 %"
1="
1A"
1F"
1K"
b0000111100 N"
b0000111100 O"
b0000111100 R"
b0000111100 U"
b0000111100 X"
#6100000000000
0!
0-
0K
0d
0="
0A"
0F"
0K"
#6150000000000
1!
1-
1K
1d
b0000111101 %"
1="
1A"
1F"
1K"
b0000111101 N"
b0000111101 O"
b0000111101 R"
b0000111101 U"
b0000111101 X"
#6200000000000
0!
0-
0K
0d
0="
0A"
0F"
0K"
#6250000000000
1!
1-
1K
1d
b0000111110 %"
1="
1A"
1F"
1K"
b0000111110 N"
b0000111110 O"
b0000111110 R"
b0000111110 U"
b0000111110 X"
#6300000000000
0!
0-
0K
0d
0="
0A"
0F"
0K"
#6350000000000
1!
1-
1K
1d
b0000111111 %"
1="
1A"
1F"
1K"
b0000111111 N"
b0000111111 O"
b0000111111 R"
b0000111111 U"
b0000111111 X"
#6400000000000
0!
0-
0K
0d
0="
0A"
0F"
0K"
#6450000000000
1!
1-
1K
1d
b0001000000 %"
1="
1A"
1F"
1K"
b0001000000 N"
b0001000000 O"
b0001000000 R"
b0001000000 U"
b0001000000 X"
#6500000000000
0!
0-
0K
0d
0="
0A"
0F"
0K"
#6550000000000
1!
1-
1K
1d
b0001000001 %"
1="
1A"
1F"
1K"
b0001000001 N"
b0001000001 O"
b0001000001 R"
b0001000001 U"
b0001000001 X"
#6600000000000
0!
0-
0K
0d
0="
0A"
0F"
0K"
#6650000000000
1!
1-
1K
1d
b0001000010 %"
1="
1A"
1F"
1K"
b0001000010 N"
b0001000010 O"
b0001000010 R"
b0001000010 U"
b0001000010 X"
#6700000000000
0!
0-
0K
0d
0="
0A"
0F"
0K"
#6750000000000
1!
1-
1K
1d
b0001000011 %"
1="
1A"
1F"
1K"
b0001000011 N"
b0001000011 O"
b0001000011 R"
b0001000011 U"
b0001000011 X"
#6800000000000
0!
0-
0K
0d
0="
0A"
0F"
0K"
#6850000000000
1!
1-
1K
1d
b0001000100 %"
1="
1A"
1F"
1K"
b0001000100 N"
b0001000100 O"
b0001000100 R"
b0001000100 U"
b0001000100 X"
#6900000000000
0!
0-
0K
0d
0="
0A"
0F"
0K"
#6950000000000
1!
1-
1K
1d
b0001000101 %"
1="
1A"
1F"
1K"
b0001000101 N"
b0001000101 O"
b0001000101 R"
b0001000101 U"
b0001000101 X"
#7000000000000
0!
0-
0K
0d
0="
0A"
0F"
0K"
#7050000000000
1!
1-
1K
1d
b0001000110 %"
1="
1A"
1F"
1K"
b0001000110 N"
b0001000110 O"
b0001000110 R"
b0001000110 U"
b0001000110 X"
#7100000000000
0!
0-
0K
0d
0="
0A"
0F"
0K"
#7150000000000
1!
1-
1K
1d
b0001000111 %"
1="
1A"
1F"
1K"
b0001000111 N"
b0001000111 O"
b0001000111 R"
b0001000111 U"
b0001000111 X"
#7200000000000
0!
0-
0K
0d
0="
0A"
0F"
0K"
#7250000000000
1!
1-
1K
1d
b0001001000 %"
1="
1A"
1F"
1K"
b0001001000 N"
b0001001000 O"
b0001001000 R"
b0001001000 U"
b0001001000 X"
#7300000000000
0!
0-
0K
0d
0="
0A"
0F"
0K"
#7350000000000
1!
1-
1K
1d
b0001001001 %"
1="
1A"
1F"
1K"
b0001001001 N"
b0001001001 O"
b0001001001 R"
b0001001001 U"
b0001001001 X"
#7400000000000
0!
0-
0K
0d
0="
0A"
0F"
0K"
#7450000000000
1!
1-
1K
1d
b0001001010 %"
1="
1A"
1F"
1K"
b0001001010 N"
b0001001010 O"
b0001001010 R"
b0001001010 U"
b0001001010 X"
#7500000000000
0!
0-
0K
0d
0="
0A"
0F"
0K"
#7550000000000
1!
1-
1K
1d
b0001001011 %"
1="
1A"
1F"
1K"
b0001001011 N"
b0001001011 O"
b0001001011 R"
b0001001011 U"
b0001001011 X"
#7600000000000
0!
0-
0K
0d
0="
0A"
0F"
0K"
#7650000000000
1!
1-
1K
1d
b0001001100 %"
1="
1A"
1F"
1K"
b0001001100 N"
b0001001100 O"
b0001001100 R"
b0001001100 U"
b0001001100 X"
#7700000000000
0!
0-
0K
0d
0="
0A"
0F"
0K"
#7750000000000
1!
1-
1K
1d
b0001001101 %"
1="
1A"
1F"
1K"
b0001001101 N"
b0001001101 O"
b0001001101 R"
b0001001101 U"
b0001001101 X"
#7800000000000
0!
0-
0K
0d
0="
0A"
0F"
0K"
#7850000000000
1!
1-
1K
1d
b0001001110 %"
1="
1A"
1F"
1K"
b0001001110 N"
b0001001110 O"
b0001001110 R"
b0001001110 U"
b0001001110 X"
#7900000000000
0!
0-
0K
0d
0="
0A"
0F"
0K"
#7950000000000
1!
1-
1K
1d
b0001001111 %"
1="
1A"
1F"
1K"
b0001001111 N"
b0001001111 O"
b0001001111 R"
b0001001111 U"
b0001001111 X"
#8000000000000
0!
0-
0K
0d
0="
0A"
0F"
0K"
#8050000000000
1!
1-
1K
1d
b0001010000 %"
1="
1A"
1F"
1K"
b0001010000 N"
b0001010000 O"
b0001010000 R"
b0001010000 U"
b0001010000 X"
#8100000000000
0!
0-
0K
0d
0="
0A"
0F"
0K"
#8150000000000
1!
1-
1K
1d
b0001010001 %"
1="
1A"
1F"
1K"
b0001010001 N"
b0001010001 O"
b0001010001 R"
b0001010001 U"
b0001010001 X"
#8200000000000
0!
0-
0K
0d
0="
0A"
0F"
0K"
#8250000000000
1!
1-
1K
1d
b0001010010 %"
1="
1A"
1F"
1K"
b0001010010 N"
b0001010010 O"
b0001010010 R"
b0001010010 U"
b0001010010 X"
#8300000000000
0!
0-
0K
0d
0="
0A"
0F"
0K"
#8350000000000
1!
1-
1K
1d
b0001010011 %"
1="
1A"
1F"
1K"
b0001010011 N"
b0001010011 O"
b0001010011 R"
b0001010011 U"
b0001010011 X"
#8400000000000
0!
0-
0K
0d
0="
0A"
0F"
0K"
#8450000000000
1!
1-
1K
1d
b0001010100 %"
1="
1A"
1F"
1K"
b0001010100 N"
b0001010100 O"
b0001010100 R"
b0001010100 U"
b0001010100 X"
#8500000000000
0!
0-
0K
0d
0="
0A"
0F"
0K"
#8550000000000
1!
1-
1K
1d
b0001010101 %"
1="
1A"
1F"
1K"
b0001010101 N"
b0001010101 O"
b0001010101 R"
b0001010101 U"
b0001010101 X"
#8600000000000
0!
0-
0K
0d
0="
0A"
0F"
0K"
#8650000000000
1!
1-
1K
1d
b0001010110 %"
1="
1A"
1F"
1K"
b0001010110 N"
b0001010110 O"
b0001010110 R"
b0001010110 U"
b0001010110 X"
#8700000000000
0!
0-
0K
0d
0="
0A"
0F"
0K"
#8750000000000
1!
1-
1K
1d
b0001010111 %"
1="
1A"
1F"
1K"
b0001010111 N"
b0001010111 O"
b0001010111 R"
b0001010111 U"
b0001010111 X"
#8800000000000
0!
0-
0K
0d
0="
0A"
0F"
0K"
#8850000000000
1!
1-
1K
1d
b0001011000 %"
1="
1A"
1F"
1K"
b0001011000 N"
b0001011000 O"
b0001011000 R"
b0001011000 U"
b0001011000 X"
#8900000000000
0!
0-
0K
0d
0="
0A"
0F"
0K"
